雷达信号处理/数据与图/数据3/ALL0000/F0000CH1.CSV

Record Length,2.500000e+03,,  -0.000005000000,   0.24000,
Sample Interval,4.000000e-09,,  -0.000004996000,   0.20000,
Trigger Point,1.250000000000e+03,,  -0.000004992000,   0.24000,
,,,  -0.000004988000,   0.28000,
,,,  -0.000004984000,   0.28000,
,,,  -0.000004980000,   0.28000,
Source,CH1,,  -0.000004976000,   0.28000,
Vertical Units,V,,  -0.000004972000,   0.32000,
Vertical Scale,1.000000e+00,,  -0.000004968000,   0.32000,
Vertical Offset,2.080000e+00,,  -0.000004964000,   0.32000,
Horizontal Units,s,,  -0.000004960000,   0.36000,
Horizontal Scale,1.000000e-06,,  -0.000004956000,   0.32000,
Pt Fmt,Y,,  -0.000004952000,   0.40000,
Yzero,0.000000e+00,,  -0.000004948000,   0.36000,
Probe Atten,1.000000e+00,,  -0.000004944000,   0.40000,
Model Number,TBS1202B-EDU,,  -0.000004940000,   0.44000,
Serial Number,C011050,,  -0.000004936000,   0.48000,
Firmware Version,FV:v4.0,,  -0.000004932000,   0.44000,
,,,-00.000004928000,   0.44000,
,,,-00.000004924000,   0.44000,
,,,-00.000004920000,   0.52000,
,,,-00.000004916000,   0.48000,
,,,-00.000004912000,   0.48000,
,,,-00.000004908000,   0.52000,
,,,-00.000004904000,   0.52000,
,,,-00.000004900000,   0.52000,
,,,-00.000004896000,   0.52000,
,,,-00.000004892000,   0.56000,
,,,-00.000004888000,   0.52000,
,,,-00.000004884000,   0.60000,
,,,-00.000004880000,   0.60000,
,,,-00.000004876000,   0.64000,
,,,-00.000004872000,   0.60000,
,,,-00.000004868000,   0.60000,
,,,-00.000004864000,   0.64000,
,,,-00.000004860000,   0.64000,
,,,-00.000004856000,   0.68000,
,,,-00.000004852000,   0.68000,
,,,-00.000004848000,   0.72000,
,,,-00.000004844000,   0.68000,
,,,-00.000004840000,   0.68000,
,,,-00.000004836000,   0.72000,
,,,-00.000004832000,   0.76000,
,,,-00.000004828000,   0.72000,
,,,-00.000004824000,   0.72000,
,,,-00.000004820000,   0.72000,
,,,-00.000004816000,   0.76000,
,,,-00.000004812000,   0.76000,
,,,-00.000004808000,   0.80000,
,,,-00.000004804000,   0.76000,
,,,-00.000004800000,   0.84000,
,,,-00.000004796000,   0.80000,
,,,-00.000004792000,   0.84000,
,,,-00.000004788000,   0.84000,
,,,-00.000004784000,   0.88000,
,,,-00.000004780000,   0.92000,
,,,-00.000004776000,   0.88000,
,,,-00.000004772000,   0.88000,
,,,-00.000004768000,   0.92000,
,,,-00.000004764000,   0.88000,
,,,-00.000004760000,   0.92000,
,,,-00.000004756000,   0.92000,
,,,-00.000004752000,   0.92000,
,,,-00.000004748000,   0.96000,
,,,-00.000004744000,   1.00000,
,,,-00.000004740000,   0.92000,
,,,-00.000004736000,   0.96000,
,,,-00.000004732000,   1.00000,
,,,-00.000004728000,   1.00000,
,,,-00.000004724000,   0.96000,
,,,-00.000004720000,   1.04000,
,,,-00.000004716000,   1.00000,
,,,-00.000004712000,   1.04000,
,,,-00.000004708000,   1.04000,
,,,-00.000004704000,   1.00000,
,,,-00.000004700000,   1.04000,
,,,-00.000004696000,   1.04000,
,,,-00.000004692000,   1.08000,
,,,-00.000004688000,   1.04000,
,,,-00.000004684000,   1.00000,
,,,-00.000004680000,   1.08000,
,,,-00.000004676000,   1.04000,
,,,-00.000004672000,   1.08000,
,,,-00.000004668000,   1.12000,
,,,-00.000004664000,   1.16000,
,,,-00.000004660000,   1.12000,
,,,-00.000004656000,   1.12000,
,,,-00.000004652000,   1.20000,
,,,-00.000004648000,   1.16000,
,,,-00.000004644000,   1.12000,
,,,-00.000004640000,   1.16000,
,,,-00.000004636000,   1.16000,
,,,-00.000004632000,   1.16000,
,,,-00.000004628000,   1.16000,
,,,-00.000004624000,   1.16000,
,,,-00.000004620000,   1.20000,
,,,-00.000004616000,   1.20000,
,,,-00.000004612000,   1.20000,
,,,-00.000004608000,   1.20000,
,,,-00.000004604000,   1.24000,
,,,-00.000004600000,   1.20000,
,,,-00.000004596000,   1.24000,
,,,-00.000004592000,   1.20000,
,,,-00.000004588000,   1.24000,
,,,-00.000004584000,   1.24000,
,,,-00.000004580000,   1.20000,
,,,-00.000004576000,   1.24000,
,,,-00.000004572000,   1.28000,
,,,-00.000004568000,   1.24000,
,,,-00.000004564000,   1.28000,
,,,-00.000004560000,   1.20000,
,,,-00.000004556000,   1.28000,
,,,-00.000004552000,   1.28000,
,,,-00.000004548000,   1.32000,
,,,-00.000004544000,   1.32000,
,,,-00.000004540000,   1.24000,
,,,-00.000004536000,   1.24000,
,,,-00.000004532000,   1.28000,
,,,-00.000004528000,   1.24000,
,,,-00.000004524000,   1.28000,
,,,-00.000004520000,   1.36000,
,,,-00.000004516000,   1.28000,
,,,-00.000004512000,   1.28000,
,,,-00.000004508000,   1.28000,
,,,-00.000004504000,   1.28000,
,,,-00.000004500000,   1.28000,
,,,-00.000004496000,   1.28000,
,,,-00.000004492000,   1.28000,
,,,-00.000004488000,   1.28000,
,,,-00.000004484000,   1.32000,
,,,-00.000004480000,   1.32000,
,,,-00.000004476000,   1.32000,
,,,-00.000004472000,   1.32000,
,,,-00.000004468000,   1.32000,
,,,-00.000004464000,   1.28000,
,,,-00.000004460000,   1.28000,
,,,-00.000004456000,   1.28000,
,,,-00.000004452000,   1.36000,
,,,-00.000004448000,   1.32000,
,,,-00.000004444000,   1.36000,
,,,-00.000004440000,   1.32000,
,,,-00.000004436000,   1.40000,
,,,-00.000004432000,   1.32000,
,,,-00.000004428000,   1.32000,
,,,-00.000004424000,   1.32000,
,,,-00.000004420000,   1.28000,
,,,-00.000004416000,   1.36000,
,,,-00.000004412000,   1.28000,
,,,-00.000004408000,   1.32000,
,,,-00.000004404000,   1.36000,
,,,-00.000004400000,   1.32000,
,,,-00.000004396000,   1.28000,
,,,-00.000004392000,   1.28000,
,,,-00.000004388000,   1.36000,
,,,-00.000004384000,   1.36000,
,,,-00.000004380000,   1.28000,
,,,-00.000004376000,   1.32000,
,,,-00.000004372000,   1.32000,
,,,-00.000004368000,   1.24000,
,,,-00.000004364000,   1.28000,
,,,-00.000004360000,   1.32000,
,,,-00.000004356000,   1.28000,
,,,-00.000004352000,   1.32000,
,,,-00.000004348000,   1.32000,
,,,-00.000004344000,   1.32000,
,,,-00.000004340000,   1.32000,
,,,-00.000004336000,   1.32000,
,,,-00.000004332000,   1.24000,
,,,-00.000004328000,   1.28000,
,,,-00.000004324000,   1.28000,
,,,-00.000004320000,   1.32000,
,,,-00.000004316000,   1.24000,
,,,-00.000004312000,   1.28000,
,,,-00.000004308000,   1.32000,
,,,-00.000004304000,   1.28000,
,,,-00.000004300000,   1.24000,
,,,-00.000004296000,   1.28000,
,,,-00.000004292000,   1.24000,
,,,-00.000004288000,   1.24000,
,,,-00.000004284000,   1.20000,
,,,-00.000004280000,   1.20000,
,,,-00.000004276000,   1.24000,
,,,-00.000004272000,   1.20000,
,,,-00.000004268000,   1.20000,
,,,-00.000004264000,   1.24000,
,,,-00.000004260000,   1.16000,
,,,-00.000004256000,   1.20000,
,,,-00.000004252000,   1.20000,
,,,-00.000004248000,   1.24000,
,,,-00.000004244000,   1.20000,
,,,-00.000004240000,   1.20000,
,,,-00.000004236000,   1.16000,
,,,-00.000004232000,   1.20000,
,,,-00.000004228000,   1.16000,
,,,-00.000004224000,   1.20000,
,,,-00.000004220000,   1.12000,
,,,-00.000004216000,   1.12000,
,,,-00.000004212000,   1.12000,
,,,-00.000004208000,   1.12000,
,,,-00.000004204000,   1.08000,
,,,-00.000004200000,   1.12000,
,,,-00.000004196000,   1.12000,
,,,-00.000004192000,   1.08000,
,,,-00.000004188000,   1.08000,
,,,-00.000004184000,   1.08000,
,,,-00.000004180000,   1.08000,
,,,-00.000004176000,   1.04000,
,,,-00.000004172000,   1.08000,
,,,-00.000004168000,   1.04000,
,,,-00.000004164000,   1.04000,
,,,-00.000004160000,   1.04000,
,,,-00.000004156000,   1.00000,
,,,-00.000004152000,   1.04000,
,,,-00.000004148000,   1.04000,
,,,-00.000004144000,   1.04000,
,,,-00.000004140000,   0.96000,
,,,-00.000004136000,   0.96000,
,,,-00.000004132000,   0.92000,
,,,-00.000004128000,   0.96000,
,,,-00.000004124000,   0.92000,
,,,-00.000004120000,   0.92000,
,,,-00.000004116000,   0.96000,
,,,-00.000004112000,   0.92000,
,,,-00.000004108000,   0.88000,
,,,-00.000004104000,   0.88000,
,,,-00.000004100000,   0.92000,
,,,-00.000004096000,   0.88000,
,,,-00.000004092000,   0.88000,
,,,-00.000004088000,   0.84000,
,,,-00.000004084000,   0.84000,
,,,-00.000004080000,   0.80000,
,,,-00.000004076000,   0.84000,
,,,-00.000004072000,   0.84000,
,,,-00.000004068000,   0.80000,
,,,-00.000004064000,   0.80000,
,,,-00.000004060000,   0.76000,
,,,-00.000004056000,   0.80000,
,,,-00.000004052000,   0.80000,
,,,-00.000004048000,   0.72000,
,,,-00.000004044000,   0.76000,
,,,-00.000004040000,   0.72000,
,,,-00.000004036000,   0.72000,
,,,-00.000004032000,   0.72000,
,,,-00.000004028000,   0.72000,
,,,-00.000004024000,   0.72000,
,,,-00.000004020000,   0.68000,
,,,-00.000004016000,   0.68000,
,,,-00.000004012000,   0.64000,
,,,-00.000004008000,   0.68000,
,,,-00.000004004000,   0.64000,
,,,-00.000004000000,   0.60000,
,,,-00.000003996000,   0.64000,
,,,-00.000003992000,   0.60000,
,,,-00.000003988000,   0.56000,
,,,-00.000003984000,   0.56000,
,,,-00.000003980000,   0.56000,
,,,-00.000003976000,   0.52000,
,,,-00.000003972000,   0.52000,
,,,-00.000003968000,   0.52000,
,,,-00.000003964000,   0.52000,
,,,-00.000003960000,   0.52000,
,,,-00.000003956000,   0.48000,
,,,-00.000003952000,   0.48000,
,,,-00.000003948000,   0.52000,
,,,-00.000003944000,   0.48000,
,,,-00.000003940000,   0.44000,
,,,-00.000003936000,   0.44000,
,,,-00.000003932000,   0.40000,
,,,-00.000003928000,   0.40000,
,,,-00.000003924000,   0.40000,
,,,-00.000003920000,   0.36000,
,,,-00.000003916000,   0.36000,
,,,-00.000003912000,   0.36000,
,,,-00.000003908000,   0.32000,
,,,-00.000003904000,   0.36000,
,,,-00.000003900000,   0.32000,
,,,-00.000003896000,   0.32000,
,,,-00.000003892000,   0.32000,
,,,-00.000003888000,   0.28000,
,,,-00.000003884000,   0.28000,
,,,-00.000003880000,   0.28000,
,,,-00.000003876000,   0.24000,
,,,-00.000003872000,   0.20000,
,,,-00.000003868000,   0.24000,
,,,-00.000003864000,   0.24000,
,,,-00.000003860000,   0.24000,
,,,-00.000003856000,   0.20000,
,,,-00.000003852000,   0.24000,
,,,-00.000003848000,   0.20000,
,,,-00.000003844000,   0.16000,
,,,-00.000003840000,   0.12000,
,,,-00.000003836000,   0.12000,
,,,-00.000003832000,   0.12000,
,,,-00.000003828000,   0.08000,
,,,-00.000003824000,   0.08000,
,,,-00.000003820000,   0.08000,
,,,-00.000003816000,   0.08000,
,,,-00.000003812000,   0.04000,
,,,-00.000003808000,   0.00000,
,,,-00.000003804000,   0.08000,
,,,-00.000003800000,  -0.04000,
,,,-00.000003796000,   0.04000,
,,,-00.000003792000,  -0.04000,
,,,-00.000003788000,   0.00000,
,,,-00.000003784000,  -0.04000,
,,,-00.000003780000,  -0.04000,
,,,-00.000003776000,  -0.08000,
,,,-00.000003772000,  -0.08000,
,,,-00.000003768000,  -0.12000,
,,,-00.000003764000,  -0.08000,
,,,-00.000003760000,  -0.12000,
,,,-00.000003756000,  -0.16000,
,,,-00.000003752000,  -0.12000,
,,,-00.000003748000,  -0.12000,
,,,-00.000003744000,  -0.16000,
,,,-00.000003740000,  -0.20000,
,,,-00.000003736000,  -0.20000,
,,,-00.000003732000,  -0.20000,
,,,-00.000003728000,  -0.20000,
,,,-00.000003724000,  -0.24000,
,,,-00.000003720000,  -0.24000,
,,,-00.000003716000,  -0.24000,
,,,-00.000003712000,  -0.28000,
,,,-00.000003708000,  -0.28000,
,,,-00.000003704000,  -0.32000,
,,,-00.000003700000,  -0.32000,
,,,-00.000003696000,  -0.32000,
,,,-00.000003692000,  -0.32000,
,,,-00.000003688000,  -0.32000,
,,,-00.000003684000,  -0.36000,
,,,-00.000003680000,  -0.36000,
,,,-00.000003676000,  -0.40000,
,,,-00.000003672000,  -0.44000,
,,,-00.000003668000,  -0.40000,
,,,-00.000003664000,  -0.44000,
,,,-00.000003660000,  -0.44000,
,,,-00.000003656000,  -0.44000,
,,,-00.000003652000,  -0.48000,
,,,-00.000003648000,  -0.48000,
,,,-00.000003644000,  -0.48000,
,,,-00.000003640000,  -0.48000,
,,,-00.000003636000,  -0.48000,
,,,-00.000003632000,  -0.52000,
,,,-00.000003628000,  -0.56000,
,,,-00.000003624000,  -0.52000,
,,,-00.000003620000,  -0.52000,
,,,-00.000003616000,  -0.56000,
,,,-00.000003612000,  -0.56000,
,,,-00.000003608000,  -0.60000,
,,,-00.000003604000,  -0.60000,
,,,-00.000003600000,  -0.60000,
,,,-00.000003596000,  -0.64000,
,,,-00.000003592000,  -0.60000,
,,,-00.000003588000,  -0.68000,
,,,-00.000003584000,  -0.64000,
,,,-00.000003580000,  -0.68000,
,,,-00.000003576000,  -0.68000,
,,,-00.000003572000,  -0.68000,
,,,-00.000003568000,  -0.68000,
,,,-00.000003564000,  -0.72000,
,,,-00.000003560000,  -0.68000,
,,,-00.000003556000,  -0.72000,
,,,-00.000003552000,  -0.72000,
,,,-00.000003548000,  -0.72000,
,,,-00.000003544000,  -0.72000,
,,,-00.000003540000,  -0.72000,
,,,-00.000003536000,  -0.76000,
,,,-00.000003532000,  -0.80000,
,,,-00.000003528000,  -0.80000,
,,,-00.000003524000,  -0.84000,
,,,-00.000003520000,  -0.80000,
,,,-00.000003516000,  -0.80000,
,,,-00.000003512000,  -0.84000,
,,,-00.000003508000,  -0.84000,
,,,-00.000003504000,  -0.84000,
,,,-00.000003500000,  -0.84000,
,,,-00.000003496000,  -0.88000,
,,,-00.000003492000,  -0.88000,
,,,-00.000003488000,  -0.88000,
,,,-00.000003484000,  -0.88000,
,,,-00.000003480000,  -0.96000,
,,,-00.000003476000,  -0.92000,
,,,-00.000003472000,  -0.92000,
,,,-00.000003468000,  -0.96000,
,,,-00.000003464000,  -0.92000,
,,,-00.000003460000,  -0.88000,
,,,-00.000003456000,  -0.96000,
,,,-00.000003452000,  -0.96000,
,,,-00.000003448000,  -0.96000,
,,,-00.000003444000,  -1.00000,
,,,-00.000003440000,  -0.96000,
,,,-00.000003436000,  -1.00000,
,,,-00.000003432000,  -1.00000,
,,,-00.000003428000,  -1.00000,
,,,-00.000003424000,  -1.00000,
,,,-00.000003420000,  -1.00000,
,,,-00.000003416000,  -1.04000,
,,,-00.000003412000,  -1.00000,
,,,-00.000003408000,  -1.00000,
,,,-00.000003404000,  -1.04000,
,,,-00.000003400000,  -1.04000,
,,,-00.000003396000,  -1.08000,
,,,-00.000003392000,  -1.08000,
,,,-00.000003388000,  -1.08000,
,,,-00.000003384000,  -1.12000,
,,,-00.000003380000,  -1.08000,
,,,-00.000003376000,  -1.08000,
,,,-00.000003372000,  -1.12000,
,,,-00.000003368000,  -1.08000,
,,,-00.000003364000,  -1.08000,
,,,-00.000003360000,  -1.12000,
,,,-00.000003356000,  -1.12000,
,,,-00.000003352000,  -1.12000,
,,,-00.000003348000,  -1.16000,
,,,-00.000003344000,  -1.16000,
,,,-00.000003340000,  -1.16000,
,,,-00.000003336000,  -1.20000,
,,,-00.000003332000,  -1.12000,
,,,-00.000003328000,  -1.16000,
,,,-00.000003324000,  -1.16000,
,,,-00.000003320000,  -1.12000,
,,,-00.000003316000,  -1.12000,
,,,-00.000003312000,  -1.20000,
,,,-00.000003308000,  -1.16000,
,,,-00.000003304000,  -1.16000,
,,,-00.000003300000,  -1.20000,
,,,-00.000003296000,  -1.16000,
,,,-00.000003292000,  -1.16000,
,,,-00.000003288000,  -1.16000,
,,,-00.000003284000,  -1.20000,
,,,-00.000003280000,  -1.24000,
,,,-00.000003276000,  -1.20000,
,,,-00.000003272000,  -1.20000,
,,,-00.000003268000,  -1.16000,
,,,-00.000003264000,  -1.20000,
,,,-00.000003260000,  -1.20000,
,,,-00.000003256000,  -1.24000,
,,,-00.000003252000,  -1.20000,
,,,-00.000003248000,  -1.24000,
,,,-00.000003244000,  -1.24000,
,,,-00.000003240000,  -1.24000,
,,,-00.000003236000,  -1.20000,
,,,-00.000003232000,  -1.24000,
,,,-00.000003228000,  -1.24000,
,,,-00.000003224000,  -1.24000,
,,,-00.000003220000,  -1.28000,
,,,-00.000003216000,  -1.24000,
,,,-00.000003212000,  -1.20000,
,,,-00.000003208000,  -1.24000,
,,,-00.000003204000,  -1.20000,
,,,-00.000003200000,  -1.24000,
,,,-00.000003196000,  -1.24000,
,,,-00.000003192000,  -1.24000,
,,,-00.000003188000,  -1.24000,
,,,-00.000003184000,  -1.24000,
,,,-00.000003180000,  -1.24000,
,,,-00.000003176000,  -1.24000,
,,,-00.000003172000,  -1.24000,
,,,-00.000003168000,  -1.24000,
,,,-00.000003164000,  -1.24000,
,,,-00.000003160000,  -1.28000,
,,,-00.000003156000,  -1.28000,
,,,-00.000003152000,  -1.24000,
,,,-00.000003148000,  -1.24000,
,,,-00.000003144000,  -1.24000,
,,,-00.000003140000,  -1.28000,
,,,-00.000003136000,  -1.24000,
,,,-00.000003132000,  -1.24000,
,,,-00.000003128000,  -1.24000,
,,,-00.000003124000,  -1.20000,
,,,-00.000003120000,  -1.24000,
,,,-00.000003116000,  -1.24000,
,,,-00.000003112000,  -1.24000,
,,,-00.000003108000,  -1.20000,
,,,-00.000003104000,  -1.20000,
,,,-00.000003100000,  -1.24000,
,,,-00.000003096000,  -1.20000,
,,,-00.000003092000,  -1.20000,
,,,-00.000003088000,  -1.24000,
,,,-00.000003084000,  -1.20000,
,,,-00.000003080000,  -1.20000,
,,,-00.000003076000,  -1.16000,
,,,-00.000003072000,  -1.20000,
,,,-00.000003068000,  -1.16000,
,,,-00.000003064000,  -1.16000,
,,,-00.000003060000,  -1.20000,
,,,-00.000003056000,  -1.16000,
,,,-00.000003052000,  -1.20000,
,,,-00.000003048000,  -1.16000,
,,,-00.000003044000,  -1.16000,
,,,-00.000003040000,  -1.16000,
,,,-00.000003036000,  -1.08000,
,,,-00.000003032000,  -1.12000,
,,,-00.000003028000,  -1.08000,
,,,-00.000003024000,  -1.12000,
,,,-00.000003020000,  -1.12000,
,,,-00.000003016000,  -1.12000,
,,,-00.000003012000,  -1.08000,
,,,-00.000003008000,  -1.12000,
,,,-00.000003004000,  -1.04000,
,,,-00.000003000000,  -1.12000,
,,,-00.000002996000,  -1.12000,
,,,-00.000002992000,  -1.08000,
,,,-00.000002988000,  -1.08000,
,,,-00.000002984000,  -1.08000,
,,,-00.000002980000,  -1.08000,
,,,-00.000002976000,  -1.08000,
,,,-00.000002972000,  -1.04000,
,,,-00.000002968000,  -1.04000,
,,,-00.000002964000,  -1.04000,
,,,-00.000002960000,  -1.00000,
,,,-00.000002956000,  -1.04000,
,,,-00.000002952000,  -1.04000,
,,,-00.000002948000,  -1.00000,
,,,-00.000002944000,  -1.04000,
,,,-00.000002940000,  -1.04000,
,,,-00.000002936000,  -1.04000,
,,,-00.000002932000,  -1.00000,
,,,-00.000002928000,  -1.00000,
,,,-00.000002924000,  -1.00000,
,,,-00.000002920000,  -1.00000,
,,,-00.000002916000,  -1.00000,
,,,-00.000002912000,  -0.96000,
,,,-00.000002908000,  -0.96000,
,,,-00.000002904000,  -0.96000,
,,,-00.000002900000,  -0.92000,
,,,-00.000002896000,  -0.92000,
,,,-00.000002892000,  -0.92000,
,,,-00.000002888000,  -0.88000,
,,,-00.000002884000,  -0.88000,
,,,-00.000002880000,  -0.88000,
,,,-00.000002876000,  -0.84000,
,,,-00.000002872000,  -0.88000,
,,,-00.000002868000,  -0.84000,
,,,-00.000002864000,  -0.84000,
,,,-00.000002860000,  -0.84000,
,,,-00.000002856000,  -0.84000,
,,,-00.000002852000,  -0.80000,
,,,-00.000002848000,  -0.84000,
,,,-00.000002844000,  -0.84000,
,,,-00.000002840000,  -0.80000,
,,,-00.000002836000,  -0.80000,
,,,-00.000002832000,  -0.76000,
,,,-00.000002828000,  -0.72000,
,,,-00.000002824000,  -0.72000,
,,,-00.000002820000,  -0.72000,
,,,-00.000002816000,  -0.68000,
,,,-00.000002812000,  -0.72000,
,,,-00.000002808000,  -0.72000,
,,,-00.000002804000,  -0.68000,
,,,-00.000002800000,  -0.68000,
,,,-00.000002796000,  -0.68000,
,,,-00.000002792000,  -0.60000,
,,,-00.000002788000,  -0.68000,
,,,-00.000002784000,  -0.68000,
,,,-00.000002780000,  -0.64000,
,,,-00.000002776000,  -0.68000,
,,,-00.000002772000,  -0.60000,
,,,-00.000002768000,  -0.64000,
,,,-00.000002764000,  -0.60000,
,,,-00.000002760000,  -0.56000,
,,,-00.000002756000,  -0.60000,
,,,-00.000002752000,  -0.56000,
,,,-00.000002748000,  -0.52000,
,,,-00.000002744000,  -0.52000,
,,,-00.000002740000,  -0.52000,
,,,-00.000002736000,  -0.56000,
,,,-00.000002732000,  -0.48000,
,,,-00.000002728000,  -0.48000,
,,,-00.000002724000,  -0.48000,
,,,-00.000002720000,  -0.44000,
,,,-00.000002716000,  -0.44000,
,,,-00.000002712000,  -0.40000,
,,,-00.000002708000,  -0.44000,
,,,-00.000002704000,  -0.40000,
,,,-00.000002700000,  -0.40000,
,,,-00.000002696000,  -0.40000,
,,,-00.000002692000,  -0.36000,
,,,-00.000002688000,  -0.36000,
,,,-00.000002684000,  -0.36000,
,,,-00.000002680000,  -0.32000,
,,,-00.000002676000,  -0.32000,
,,,-00.000002672000,  -0.28000,
,,,-00.000002668000,  -0.28000,
,,,-00.000002664000,  -0.28000,
,,,-00.000002660000,  -0.28000,
,,,-00.000002656000,  -0.28000,
,,,-00.000002652000,  -0.24000,
,,,-00.000002648000,  -0.24000,
,,,-00.000002644000,  -0.24000,
,,,-00.000002640000,  -0.20000,
,,,-00.000002636000,  -0.20000,
,,,-00.000002632000,  -0.16000,
,,,-00.000002628000,  -0.20000,
,,,-00.000002624000,  -0.16000,
,,,-00.000002620000,  -0.20000,
,,,-00.000002616000,  -0.12000,
,,,-00.000002612000,  -0.12000,
,,,-00.000002608000,  -0.12000,
,,,-00.000002604000,  -0.08000,
,,,-00.000002600000,  -0.08000,
,,,-00.000002596000,  -0.08000,
,,,-00.000002592000,  -0.08000,
,,,-00.000002588000,  -0.08000,
,,,-00.000002584000,  -0.04000,
,,,-00.000002580000,  -0.04000,
,,,-00.000002576000,   0.00000,
,,,-00.000002572000,   0.00000,
,,,-00.000002568000,   0.04000,
,,,-00.000002564000,   0.04000,
,,,-00.000002560000,   0.04000,
,,,-00.000002556000,   0.08000,
,,,-00.000002552000,   0.04000,
,,,-00.000002548000,   0.08000,
